{
  "project_info": {
    "project_number": "1011261584521",
    "firebase_url": "https://homeet-827c1-default-rtdb.firebaseio.com",
    "project_id": "homeet-827c1",
    "storage_bucket": "homeet-827c1.appspot.com"
  },
  "client": [
    {
      "client_info": {
        "mobilesdk_app_id": "1:1011261584521:android:312499f40188e8969b4258",
        "android_client_info": {
          "package_name": "com.example.homeet"
        }
      },
      "oauth_client": [
        {
          "client_id": "1011261584521-lsnooi3qdr99gobs8473r7vdnb0k3cfk.apps.googleusercontent.com",
          "client_type": 3
        }
      ],
      "api_key": [
        {
          "current_key": "AIzaSyBZ_JtxudHaU9WdzEQCGvIK4vS71mGKMS4"
        }
      ],
      "services": {
        "appinvite_service": {
          "other_platform_oauth_client": [
            {
              "client_id": "1011261584521-lsnooi3qdr99gobs8473r7vdnb0k3cfk.apps.googleusercontent.com",
              "client_type": 3
            }
          ]
        }
      }
    }
  ],
  "configuration_version": "1"
}